Tasa de Ganancia • indicadores
…
  left_join(corporate_profits_btaxes_1948_1987,by = "sector") %>% 
  left_join(corporate_profits_btaxes_1987_2000,by = "sector") %>% 
  left_join(corporate_profits_btaxes_2000_2018,by = "sector") %>% 
  select(-"1998.y",-"1999.y") %>% 
  gather(.,
         key = fecha,
         value = profit_corp,
         2:91)  %>% 
  mutate(profit_corp = as.double(profit_corp),  #por qué pasa esta conversion a chr?
         fecha = as.Date(parse_datetime(fecha, format = "%Y")),
         sector = case_when(sector == "Corporate profits before tax" ~ "Corporate",
                            TRUE ~ sector))
corporate_profits_unificacion

## # A tibble: 6,660 x 3
##    sector                                         fecha      profit_corp
##    <chr>                                          <date>           <dbl>
##  1 Corporate                                      1929-01-01       10911
##  2 Domestic industries                            1929-01-01       10679
##  3 Agriculture, forestry, and fisheries           1929-01-01          11
##  4 Farms                                          1929-01-01           2
##  5 Agricultural services, forestry, and fisheries 1929-01-01           9
##  6 Mining                                         1929-01-01         472
##  7 Metal mining                                   1929-01-01         253
##  8 Anthracite mining                              1929-01-01          10
##  9 Bituminous and other soft coal mining1         1929-01-01          16
## 10 Crude petroleum and natural gas                1929-01-01         133
## # … with 6,650 more rows
…
stock_corp_hc <- read_csv("../data/Table 6.3. Historical-Cost Net Stock of Private Fixed Assets by Industry Group and Legal Form of Organization.csv", skip = 4) %>%
  select(-Line) %>%
  rename(sector = X2) %>%
  na.omit(stock_corp_hc) %>%
  gather(.,
           key = fecha,
         value = stock,
         2:95) %>%
  mutate(stock_hc = stock * 1000,
         fecha = as.Date(parse_datetime(fecha, format = "%Y"))) %>% 
  select(fecha, everything(.), -stock)
stock_corp_hc      

## # A tibble: 1,222 x 3
##    fecha      sector                  stock_hc
##    <date>     <chr>                      <dbl>
##  1 1925-01-01 Private fixed assets      148100
##  2 1925-01-01 Corporate                  70500
##  3 1925-01-01 Financial                   2200
##  4 1925-01-01 Nonfinancial               68200
##  5 1925-01-01 Noncorporate               77600
##  6 1925-01-01 Sole proprietorships       18600
##  7 1925-01-01 Partnerships                6100
##  8 1925-01-01 Nonprofit institutions      5300
##  9 1925-01-01 Households                 47600
## 10 1925-01-01 Tax-exempt cooperatives        0
## # … with 1,212 more rows
…
## Warning: Missing column names filled in: 'X2' [2]

## Parsed with column specification:
## cols(
##   .default = col_double(),
##   X2 = col_character()
## )

## See spec(...) for full column specifications.

stock_corp_cc      

## # A tibble: 1,222 x 3
##    fecha      sector.x                stock_cc
##    <date>     <chr>                      <dbl>
##  1 1925-01-01 Private fixed assets      223400
##  2 1925-01-01 Corporate                 100100
##  3 1925-01-01 Financial                   3100
##  4 1925-01-01 Nonfinancial               97000
##  5 1925-01-01 Noncorporate              123200
##  6 1925-01-01 Sole proprietorships       26300
##  7 1925-01-01 Partnerships                7900
##  8 1925-01-01 Nonprofit institutions      8100
##  9 1925-01-01 Households                 80900
## 10 1925-01-01 Tax-exempt cooperatives        0
## # … with 1,212 more rows
…
rop <- stock_corp_hc %>%
  left_join(corporate_profits_unificacion, by = "fecha") %>% 
  left_join(stock_corp_cc, by = c("sector.x", "fecha")) %>% 
  filter(sector.x == "Corporate",
         sector.y == "Corporate") %>%
  mutate(stock_hc_anio_ant = lag(stock_hc, k = 1),
         stock_cc_anio_ant = lag(stock_cc, k = 1),
          tg_hc = profit_corp / stock_hc_anio_ant * 100, 
          tg_cc = profit_corp / stock_cc_anio_ant * 100 ) %>% 
  select(fecha, stock_hc, stock_hc_anio_ant, stock_cc, stock_cc_anio_ant, 
         profit_corp, tg_cc, tg_hc)
rop

## # A tibble: 88 x 8
##    fecha      stock_hc stock_hc_anio_a… stock_cc stock_cc_anio_a…
##    <date>        <dbl>            <dbl>    <dbl>            <dbl>
##  1 1929-01-01    82600               NA   106000               NA
##  2 1930-01-01    84500            82600   101000           106000
##  3 1931-01-01    84200            84500    90700           101000
##  4 1932-01-01    82400            84200    84700            90700
##  5 1933-01-01    80600            82400    85500            84700
##  6 1934-01-01    79500            80600    86800            85500
##  7 1935-01-01    78900            79500    86300            86800
##  8 1936-01-01    79300            78900    94900            86300
##  9 1937-01-01    81000            79300    98400            94900
## 10 1938-01-01    81200            81000    97200            98400
## # … with 78 more rows, and 3 more variables: profit_corp <dbl>,
## #   tg_cc <dbl>, tg_hc <dbl>
…
Tasa de Ganancia sector industrial y farms

#problema para calcularla con el stock del año anterior
rop_rama <- stock_corp_hc %>%
  filter(sector %in% c("Private fixed assets", "Corporate", "Farms", "Manufacturing")) %>% 
  left_join(corporate_profits_unificacion, by = c("fecha", "sector")) %>% 
  group_by(fecha, sector) %>% 
  summarise(tg_1 = profit_corp / stock_hc * 100)
rop_rama

## # A tibble: 376 x 3
## # Groups:   fecha [94]
##    fecha      sector                tg_1
##    <date>     <chr>                <dbl>
##  1 1925-01-01 Corporate               NA
##  2 1925-01-01 Farms                   NA
##  3 1925-01-01 Manufacturing           NA
##  4 1925-01-01 Private fixed assets    NA
##  5 1926-01-01 Corporate               NA
##  6 1926-01-01 Farms                   NA
##  7 1926-01-01 Manufacturing           NA
##  8 1926-01-01 Private fixed assets    NA
##  9 1927-01-01 Corporate               NA
## 10 1927-01-01 Farms                   NA
## # … with 366 more rows
…
## Warning: Missing column names filled in: 'X2' [2]

## Parsed with column specification:
## cols(
##   .default = col_double(),
##   X2 = col_character()
## )

## See spec(...) for full column specifications.

stock_total_cc      

## # A tibble: 2,256 x 3
##    fecha      sector                                  stock_cc
##    <date>     <chr>                                      <dbl>
##  1 1925-01-01 Fixed assets and consumer durable goods   297500
##  2 1925-01-01 Fixed assets                              261700
##  3 1925-01-01 Private                                   223400
##  4 1925-01-01 Nonresidential                            127000
##  5 1925-01-01 Equipment                                  31100
##  6 1925-01-01 Structures                                 94000
##  7 1925-01-01 Intellectual property products              1900
##  8 1925-01-01 Residential                                96400
##  9 1925-01-01 Government                                 38300
## 10 1925-01-01 Nonresidential                             38300
## # … with 2,246 more rows
…
## See spec(...) for full column specifications.

## Warning: 5 parsing failures.
## row col   expected    actual                                    file
##  12  -- 92 columns 1 columns '../data/Net Value Added by Sector.csv'
##  13  -- 92 columns 1 columns '../data/Net Value Added by Sector.csv'
##  14  -- 92 columns 1 columns '../data/Net Value Added by Sector.csv'
##  15  -- 92 columns 1 columns '../data/Net Value Added by Sector.csv'
##  16  -- 92 columns 1 columns '../data/Net Value Added by Sector.csv'

net_va

## # A tibble: 900 x 3
##    fecha      sector                                     net_va_corr
##    <date>     <chr>                                            <dbl>
##  1 1929-01-01 Net domestic product                             94148
##  2 1929-01-01 Business1                                        81788
##  3 1929-01-01 Nonfarm2                                         73575
##  4 1929-01-01 Farm                                              8213
##  5 1929-01-01 Households and institutions                       7776
##  6 1929-01-01 Households                                        6474
##  7 1929-01-01 Nonprofit institutions serving households3        1302
##  8 1929-01-01 General government4                               4584
##  9 1929-01-01 Federal                                           1053
## 10 1929-01-01 State and local                                   3531
## # … with 890 more rows
…
